occurrence manual
…
6.2.1 downstream data manipulation

You can pass the data object directly on to dplyr functions. Here, we get a
table of record counts by species in descending order.

library("dplyr")
out <- searchbyterm(genus = "Ochotona", limit = 800)
out$data %>%
  group_by(scientificname) %>%
  summarise(count = length(scientificname)) %>%
  arrange(desc(count))
#> # A tibble: 23 x 2
#>    scientificname                            count
#>    <chr>                                     <int>
#>  1 Ochotona princeps                           428
#>  2 Ochotona pallasi                            129
#>  3 Ochotona princeps saxatilis                 104
#>  4 Ochotona hyperborea                          30
#>  5 Ochotona dauurica                            21
#>  6 Ochotona (Pika) princeps Richardson, 1828    20
#>  7 Ochotona collaris                            15
#>  8 Ochotona princeps figginsi                   14
#>  9 Ochotona princeps schisticeps                 6
#> 10 Ochotona princeps taylori                     6
#> # … with 13 more rows
